{
  "players": [
    {
      "id": "aardsda01",
      "birthYear": 1981,
      "birthMonth": 12,
      "birthDay": 27,
      "birthCountry": "USA",
      "birthState": "CO",
      "birthCity": "Denver",
      "deathYear": null,
      "deathMonth": null,
      "deathDay": null,
      "deathCounty": "",
      "deathState": "",
      "deathCity": "",
      "nameFirst": "David",
      "nameLast": "Aardsma",
      "nameGiven": "David Allan",
      "weight": 215,
      "height": 75,
      "debut": "2004-04-06",
      "finalGame": "2015-08-23",
      "retroId": "aardd001",
      "bbrefId": "aardsda01",
      "bats": "R",
      "throws": "R"
    },
    {
      "id": "aasedo01",
      "birthYear": 1954,
      "birthMonth": 9,
      "birthDay": 8,
      "birthCountry": "USA",
      "birthState": "CA",
      "birthCity": "Orange",
      "deathYear": null,
      "deathMonth": null,
      "deathDay": null,
      "deathCounty": "",
      "deathState": "",
      "deathCity": "",
      "nameFirst": "Don",
      "nameLast": "Aase",
      "nameGiven": "Donald William",
      "weight": 190,
      "height": 75,
      "debut": "1977-07-26",
      "finalGame": "1990-10-03",
      "retroId": "aased001",
      "bbrefId": "aasedo01",
      "bats": "R",
      "throws": "R"
    },
    {
      "id": "aaronto01",
      "birthYear": 1939,
      "birthMonth": 8,
      "birthDay": 5,
      "birthCountry": "USA",
      "birthState": "AL",
      "birthCity": "Mobile",
      "deathYear": 1984,
      "deathMonth": 8,
      "deathDay": 16,
      "deathCounty": "USA",
      "deathState": "GA",
      "deathCity": "Atlanta",
      "nameFirst": "Tommie",
      "nameLast": "Aaron",
      "nameGiven": "Tommie Lee",
      "weight": 190,
      "height": 75,
      "debut": "1962-04-10",
      "finalGame": "1971-09-26",
      "retroId": "aarot101",
      "bbrefId": "aaronto01",
      "bats": "R",
      "throws": "R"
    }
  ],
  "totalElements": 4,
  "totalPages": 2,
  "currentPage": 0,
  "limit": 3,
  "currentPageSize": 3
}
